{
  "data": [
    {
      "transactionAmount": 200,
      "Currency": "USD",
      "senderPhone": "00201234567890",
      "transactionStatus": 1,
      "transactionDate": "2021-03-29 09:36:11",
      "transactionIdentification": "d3d29d70-1d25-11e3-8591-034165a3a613"
    },
    {
      "transactionAmount": 500,
      "Currency": "USD",
      "senderPhone": "00201234567891",
      "transactionStatus": 3,
      "transactionDate": "2021-05-29 09:36:11",
      "transactionIdentification": "d3d29d70-1d25-11e3-8591-034165a3a615"
    },
    {
      "transactionAmount": 400,
      "Currency": "USD",
      "senderPhone": "00201234567892",
      "transactionStatus": 2,
      "transactionDate": "2021-02-29 09:36:11",
      "transactionIdentification": "d3d29d70-1d25-11e3-8591-034165a3a614"
    }
  ]
}